-------------------------------------------------------------------------------
Test set: com.example.HelloAppTest
-------------------------------------------------------------------------------
Tests run: 5, Failures: 0, Errors: 0, Skipped: 0, Time elapsed: 1.909 sec - in com.example.HelloAppTest
